%YAML 1.1
%TAG !u! tag:unity3d.com,2011:
--- !u!1045 &1
EditorBuildSettings:
  m_ObjectHideFlags: 0
  serializedVersion: 2
  m_Scenes:
  - enabled: 1
    path: Assets/Scenes/Game.unity
    guid: d81be9c611ed2b6429e43c11fa0a819b
  m_configObjects:
    Unity.XR.Oculus.Settings: {fileID: 11400000, guid: 000473f1f9396d641ad62f2952f92b8d, type: 2}
    com.unity.input.settings: {fileID: 11400000, guid: 59269a35a6270414f96a5da690903201, type: 2}
    com.unity.xr.management.loader_settings: {fileID: 11400000, guid: a50ce719be2b74f48a1915e9e7153c59, type: 2}
